info face="Continuum Medium" size=128 bold=0 italic=0 charset="" unicode=0 stretchH=100 smooth=1 aa=1 padding=0,0,0,0 spacing=0,0
common lineHeight=160 base=128 scaleW=512 scaleH=512 pages=2 packed=0
page id=0 file="continuum1.png"
page id=1 file="continuum2.png"
chars count=95
char id=32   x=0     y=0     width=0     height=0     xoffset=0     yoffset=128    xadvance=36     page=0  chnl=0 
char id=125   x=0     y=0     width=29     height=120     xoffset=6     yoffset=23    xadvance=39     page=0  chnl=0 
char id=123   x=29     y=0     width=30     height=120     xoffset=6     yoffset=23    xadvance=39     page=0  chnl=0 
char id=93   x=59     y=0     width=24     height=114     xoffset=5     yoffset=28    xadvance=35     page=0  chnl=0 
char id=91   x=83     y=0     width=24     height=114     xoffset=8     yoffset=28    xadvance=35     page=0  chnl=0 
char id=41   x=107     y=0     width=23     height=114     xoffset=5     yoffset=28    xadvance=33     page=0  chnl=0 
char id=40   x=130     y=0     width=22     height=114     xoffset=8     yoffset=28    xadvance=33     page=0  chnl=0 
char id=106   x=152     y=0     width=28     height=114     xoffset=-2     yoffset=37    xadvance=27     page=0  chnl=0 
char id=127   x=180     y=0     width=50     height=109     xoffset=8     yoffset=21    xadvance=64     page=0  chnl=0 
char id=36   x=230     y=0     width=60     height=109     xoffset=5     yoffset=32    xadvance=69     page=0  chnl=0 
char id=81   x=290     y=0     width=66     height=104     xoffset=8     yoffset=37    xadvance=80     page=0  chnl=0 
char id=78   x=356     y=0     width=65     height=95     xoffset=8     yoffset=36    xadvance=79     page=0  chnl=0 
char id=87   x=0     y=120     width=105     height=94     xoffset=1     yoffset=36    xadvance=106     page=0  chnl=0 
char id=77   x=105     y=120     width=92     height=94     xoffset=8     yoffset=36    xadvance=105     page=0  chnl=0 
char id=65   x=197     y=120     width=84     height=94     xoffset=-1     yoffset=36    xadvance=78     page=0  chnl=0 
char id=38   x=281     y=120     width=83     height=93     xoffset=5     yoffset=37    xadvance=90     page=0  chnl=0 
char id=35   x=364     y=120     width=71     height=93     xoffset=3     yoffset=37    xadvance=77     page=0  chnl=0 
char id=37   x=0     y=214     width=85     height=93     xoffset=4     yoffset=37    xadvance=92     page=0  chnl=0 
char id=64   x=85     y=214     width=85     height=93     xoffset=4     yoffset=37    xadvance=92     page=0  chnl=0 
char id=47   x=170     y=214     width=65     height=93     xoffset=4     yoffset=37    xadvance=72     page=0  chnl=0 
char id=124   x=235     y=214     width=15     height=93     xoffset=8     yoffset=37    xadvance=29     page=0  chnl=0 
char id=63   x=250     y=214     width=59     height=93     xoffset=3     yoffset=37    xadvance=65     page=0  chnl=0 
char id=33   x=309     y=214     width=17     height=93     xoffset=8     yoffset=37    xadvance=31     page=0  chnl=0 
char id=48   x=326     y=214     width=66     height=93     xoffset=8     yoffset=37    xadvance=81     page=0  chnl=0 
char id=57   x=392     y=214     width=67     height=93     xoffset=8     yoffset=37    xadvance=81     page=0  chnl=0 
char id=56   x=0     y=307     width=67     height=93     xoffset=8     yoffset=37    xadvance=81     page=0  chnl=0 
char id=55   x=67     y=307     width=62     height=93     xoffset=10     yoffset=37    xadvance=81     page=0  chnl=0 
char id=54   x=129     y=307     width=67     height=93     xoffset=8     yoffset=37    xadvance=81     page=0  chnl=0 
char id=53   x=196     y=307     width=60     height=93     xoffset=11     yoffset=37    xadvance=81     page=0  chnl=0 
char id=52   x=256     y=307     width=62     height=93     xoffset=8     yoffset=37    xadvance=81     page=0  chnl=0 
char id=51   x=318     y=307     width=60     height=93     xoffset=11     yoffset=37    xadvance=81     page=0  chnl=0 
char id=50   x=378     y=307     width=59     height=93     xoffset=12     yoffset=37    xadvance=81     page=0  chnl=0 
char id=49   x=437     y=307     width=15     height=93     xoffset=34     yoffset=37    xadvance=81     page=0  chnl=0 
char id=116   x=452     y=307     width=26     height=93     xoffset=8     yoffset=37    xadvance=29     page=0  chnl=0 
char id=108   x=478     y=307     width=13     height=93     xoffset=8     yoffset=37    xadvance=27     page=0  chnl=0 
char id=107   x=0     y=400     width=60     height=93     xoffset=8     yoffset=37    xadvance=67     page=0  chnl=0 
char id=104   x=60     y=400     width=58     height=93     xoffset=8     yoffset=37    xadvance=71     page=0  chnl=0 
char id=102   x=118     y=400     width=25     height=93     xoffset=8     yoffset=37    xadvance=31     page=0  chnl=0 
char id=100   x=143     y=400     width=58     height=93     xoffset=8     yoffset=37    xadvance=71     page=0  chnl=0 
char id=98   x=201     y=400     width=58     height=93     xoffset=8     yoffset=37    xadvance=71     page=0  chnl=0 
char id=90   x=259     y=400     width=60     height=93     xoffset=4     yoffset=37    xadvance=66     page=0  chnl=0 
char id=89   x=319     y=400     width=83     height=93     xoffset=-2     yoffset=37    xadvance=73     page=0  chnl=0 
char id=88   x=402     y=400     width=86     height=93     xoffset=-1     yoffset=37    xadvance=82     page=0  chnl=0 
char id=95   x=0     y=493     width=73     height=9     xoffset=0     yoffset=136    xadvance=71     page=0  chnl=0 
char id=45   x=73     y=493     width=34     height=15     xoffset=4     yoffset=85    xadvance=41     page=0  chnl=0 
char id=46   x=107     y=493     width=17     height=17     xoffset=3     yoffset=113    xadvance=22     page=0  chnl=0 
char id=86   x=0     y=0     width=83     height=93     xoffset=-1     yoffset=37    xadvance=77     page=1  chnl=0 
char id=85   x=83     y=0     width=66     height=93     xoffset=8     yoffset=37    xadvance=79     page=1  chnl=0 
char id=84   x=149     y=0     width=53     height=93     xoffset=1     yoffset=37    xadvance=53     page=1  chnl=0 
char id=83   x=202     y=0     width=59     height=93     xoffset=5     yoffset=37    xadvance=68     page=1  chnl=0 
char id=82   x=261     y=0     width=66     height=93     xoffset=8     yoffset=37    xadvance=77     page=1  chnl=0 
char id=80   x=327     y=0     width=66     height=93     xoffset=8     yoffset=37    xadvance=75     page=1  chnl=0 
char id=79   x=393     y=0     width=66     height=93     xoffset=8     yoffset=37    xadvance=80     page=1  chnl=0 
char id=76   x=0     y=93     width=59     height=93     xoffset=8     yoffset=37    xadvance=66     page=1  chnl=0 
char id=75   x=59     y=93     width=68     height=93     xoffset=8     yoffset=37    xadvance=72     page=1  chnl=0 
char id=74   x=127     y=93     width=27     height=93     xoffset=2     yoffset=37    xadvance=34     page=1  chnl=0 
char id=73   x=154     y=93     width=15     height=93     xoffset=8     yoffset=37    xadvance=29     page=1  chnl=0 
char id=72   x=169     y=93     width=67     height=93     xoffset=8     yoffset=37    xadvance=81     page=1  chnl=0 
char id=71   x=236     y=93     width=66     height=93     xoffset=8     yoffset=37    xadvance=80     page=1  chnl=0 
char id=70   x=302     y=93     width=61     height=93     xoffset=8     yoffset=37    xadvance=70     page=1  chnl=0 
char id=69   x=363     y=93     width=60     height=93     xoffset=8     yoffset=37    xadvance=73     page=1  chnl=0 
char id=68   x=423     y=93     width=67     height=93     xoffset=8     yoffset=37    xadvance=80     page=1  chnl=0 
char id=67   x=0     y=186     width=60     height=93     xoffset=8     yoffset=37    xadvance=71     page=1  chnl=0 
char id=66   x=60     y=186     width=67     height=93     xoffset=8     yoffset=37    xadvance=79     page=1  chnl=0 
char id=92   x=127     y=186     width=68     height=92     xoffset=4     yoffset=38    xadvance=77     page=1  chnl=0 
char id=121   x=195     y=186     width=58     height=92     xoffset=8     yoffset=59    xadvance=71     page=1  chnl=0 
char id=113   x=253     y=186     width=58     height=92     xoffset=8     yoffset=59    xadvance=72     page=1  chnl=0 
char id=112   x=311     y=186     width=58     height=92     xoffset=8     yoffset=59    xadvance=72     page=1  chnl=0 
char id=105   x=369     y=186     width=16     height=92     xoffset=6     yoffset=37    xadvance=27     page=1  chnl=0 
char id=103   x=385     y=186     width=58     height=92     xoffset=8     yoffset=59    xadvance=72     page=1  chnl=0 
char id=122   x=443     y=186     width=61     height=71     xoffset=3     yoffset=59    xadvance=68     page=1  chnl=0 
char id=120   x=0     y=279     width=63     height=71     xoffset=1     yoffset=59    xadvance=63     page=1  chnl=0 
char id=119   x=63     y=279     width=92     height=71     xoffset=1     yoffset=59    xadvance=93     page=1  chnl=0 
char id=118   x=155     y=279     width=66     height=71     xoffset=0     yoffset=59    xadvance=65     page=1  chnl=0 
char id=117   x=221     y=279     width=58     height=71     xoffset=8     yoffset=59    xadvance=71     page=1  chnl=0 
char id=115   x=279     y=279     width=52     height=71     xoffset=5     yoffset=59    xadvance=61     page=1  chnl=0 
char id=114   x=331     y=279     width=24     height=71     xoffset=8     yoffset=59    xadvance=32     page=1  chnl=0 
char id=111   x=355     y=279     width=59     height=71     xoffset=7     yoffset=59    xadvance=72     page=1  chnl=0 
char id=110   x=414     y=279     width=58     height=71     xoffset=8     yoffset=59    xadvance=71     page=1  chnl=0 
char id=109   x=0     y=350     width=79     height=71     xoffset=8     yoffset=59    xadvance=93     page=1  chnl=0 
char id=101   x=79     y=350     width=57     height=71     xoffset=8     yoffset=59    xadvance=69     page=1  chnl=0 
char id=99   x=136     y=350     width=46     height=71     xoffset=8     yoffset=59    xadvance=57     page=1  chnl=0 
char id=97   x=182     y=350     width=58     height=71     xoffset=8     yoffset=59    xadvance=72     page=1  chnl=0 
char id=43   x=240     y=350     width=68     height=70     xoffset=7     yoffset=48    xadvance=81     page=1  chnl=0 
char id=59   x=308     y=350     width=18     height=68     xoffset=5     yoffset=73    xadvance=26     page=1  chnl=0 
char id=94   x=326     y=350     width=67     height=56     xoffset=-2     yoffset=39    xadvance=60     page=1  chnl=0 
char id=58   x=393     y=350     width=17     height=56     xoffset=5     yoffset=73    xadvance=26     page=1  chnl=0 
char id=62   x=410     y=350     width=63     height=49     xoffset=-1     yoffset=59    xadvance=61     page=1  chnl=0 
char id=60   x=0     y=421     width=62     height=49     xoffset=1     yoffset=59    xadvance=66     page=1  chnl=0 
char id=42   x=62     y=421     width=41     height=43     xoffset=4     yoffset=37    xadvance=49     page=1  chnl=0 
char id=61   x=103     y=421     width=68     height=40     xoffset=8     yoffset=64    xadvance=83     page=1  chnl=0 
char id=39   x=171     y=421     width=14     height=31     xoffset=6     yoffset=37    xadvance=24     page=1  chnl=0 
char id=34   x=185     y=421     width=28     height=31     xoffset=6     yoffset=37    xadvance=39     page=1  chnl=0 
char id=44   x=213     y=421     width=17     height=30     xoffset=3     yoffset=111    xadvance=23     page=1  chnl=0 
char id=126   x=230     y=421     width=62     height=25     xoffset=4     yoffset=85    xadvance=69     page=1  chnl=0 
char id=96   x=292     y=421     width=27     height=20     xoffset=2     yoffset=33    xadvance=43     page=1  chnl=0 
kernings count=-1
